Division,WeightClassKg,Place,Name,Team,BodyweightKg,Best3SquatKg,Best3BenchKg,Best3DeadliftKg,TotalKg,Equipment,Event,Sex
Boys,51.71,1,Joey Salinas #1,Jacksboro,51.39,163.29,77.11,149.69,390.09,Single-ply,SBD,M
Boys,55.79,2,Ezekiel Gonzalez,Graham,51.89,120.2,74.84,147.42,342.46,Single-ply,SBD,M
Boys,51.71,3,Tony Carrillo,Graham,51.71,108.86,61.23,124.74,294.84,Single-ply,SBD,M
Boys,51.71,4,Tinnin Smith,Jacksboro,50.12,108.86,56.7,99.79,265.35,Single-ply,SBD,M
Boys,51.71,5,Jacob Jackson,Vernon,51.57,97.52,52.16,102.06,251.74,Single-ply,SBD,M
Boys,51.71,DQ,Roger Garcia,Mineral Wells,50.58,113.4,,,,Single-ply,SBD,M
Boys,55.79,1,Devonte Perez,Wichita Falls Rider,55.38,131.54,63.5,136.08,331.12,Single-ply,SBD,M
Boys,55.79,2,Dillon Hervey,Mineral Wells,53.39,127.01,63.5,136.08,326.59,Single-ply,SBD,M
Boys,55.79,DQ,Armani Donaldson,Wichita Falls,55.11,138.35,,,,Single-ply,SBD,M
Boys,55.79,DQ,Shawn James,Nocona,55.79,,,,,Single-ply,SBD,M
Boys,55.79,DQ,John Jennings,Nocona,55.79,,,,,Single-ply,SBD,M
Boys,55.79,DQ,D'Ahshujuan Hickerson,Wichita Falls,55.79,145.15,,,,Single-ply,SBD,M
Boys,59.87,1,Brandon Hisaw,Graham,59.78,174.63,90.72,185.97,451.32,Single-ply,SBD,M
Boys,59.87,2,Adam Byrd,Wichita Falls Rider,59.28,161.03,92.99,170.1,424.11,Single-ply,SBD,M
Boys,59.87,3,Taylor Ross,Nocona,58.83,145.15,88.45,174.63,408.23,Single-ply,SBD,M
Boys,59.87,4,Marcus Garza,Graham,58.24,145.15,86.18,151.95,383.29,Single-ply,SBD,M
Boys,59.87,5,Trace Adams,Iowa Park,58.29,142.88,83.91,151.95,378.75,Single-ply,SBD,M
Boys,59.87,6,Jonathan Salazar,Bridgeport,58.92,138.35,88.45,129.27,356.07,Single-ply,SBD,M
Boys,59.87,7,Colton Baker,Vernon,56.93,124.74,65.77,138.35,328.85,Single-ply,SBD,M
Boys,59.87,8,Johnathon Dowden,Wichita Falls,59.28,102.06,68.04,136.08,306.17,Single-ply,SBD,M
Boys,67.13,1,Juan Martinez,Graham,66.04,181.44,122.47,185.97,489.88,Single-ply,SBD,M
Boys,67.13,2,Kelton Dethloff,Paradise,65.09,192.78,83.91,170.1,446.79,Single-ply,SBD,M
Boys,67.13,3,Josh Wood,Iowa Park,64.36,163.29,102.06,170.1,435.45,Single-ply,SBD,M
Boys,67.13,4,Dillon Gonzales,Graham,62.23,172.37,95.25,161.03,428.64,Single-ply,SBD,M
Boys,67.13,5,Dalton Pullin,Seymour,66.27,158.76,95.25,167.83,421.84,Single-ply,SBD,M
Boys,67.13,6,Reagan Brewer,Iowa Park,64.64,165.56,81.65,156.49,403.7,Single-ply,SBD,M
Boys,67.13,7,Jesse Smith,Bridgeport,65.82,158.76,92.99,149.69,401.43,Single-ply,SBD,M
Boys,67.13,8,Jordan McConnell,Paradise,62.46,154.22,88.45,151.95,394.63,Single-ply,SBD,M
Boys,67.13,9,Dylan Horton,Graham,62.69,154.22,81.65,156.49,392.36,Single-ply,SBD,M
Boys,67.13,10,Lucas Sosebee,Iowa Park,65.27,151.95,81.65,147.42,381.02,Single-ply,SBD,M
Boys,67.13,11,Chase Thompson,Jacksboro,66.36,136.08,77.11,154.22,367.41,Single-ply,SBD,M
Boys,67.13,12,Valentin San Augustine,Bridgeport,60.28,117.93,108.86,138.35,365.14,Single-ply,SBD,M
Boys,67.13,13,Dane McDonald,Wichita Falls,66.45,108.86,70.31,154.22,333.39,Single-ply,SBD,M
Boys,67.13,14,Victor Contreras,Mineral Wells,64.73,113.4,68.04,113.4,294.84,Single-ply,SBD,M
Boys,67.13,DQ,Robert Norvell,Paradise,67.13,,,,,Single-ply,SBD,M
Boys,67.13,DQ,Ernest Tescum,Wichita Falls Rider,67.13,,,,,Single-ply,SBD,M
Boys,67.13,DQ,Calahan Storey,Paradise,67.13,,,,,Single-ply,SBD,M
Boys,74.84,1,Lucas Hartman,Iowa Park,69.08,190.51,124.74,208.65,523.9,Single-ply,SBD,M
Boys,74.84,2,Bobby Tatom,Wichita Falls,71.53,192.78,124.74,204.12,521.63,Single-ply,SBD,M
Boys,74.84,3,Leo Gonzales,Mineral Wells,73.53,197.31,115.67,192.78,505.76,Single-ply,SBD,M
Boys,74.84,4,Seth Rogers,Jacksboro,73.26,190.51,115.67,188.24,494.42,Single-ply,SBD,M
Boys,74.84,5,Phillip Brewer #2,Iowa Park,70.53,167.83,102.06,172.37,442.25,Single-ply,SBD,M
Boys,74.84,6,Billy Forrester,Jacksboro,73.26,149.69,86.18,145.15,381.02,Single-ply,SBD,M
Boys,74.84,7,Garrett Adams,Decatur,70.35,145.15,86.18,147.42,378.75,Single-ply,SBD,M
Boys,74.84,8,Allen Breaux,Santo,70.81,142.88,74.84,149.69,367.41,Single-ply,SBD,M
Boys,74.84,9,John Brockman,Nocona,69.99,127.01,92.99,142.88,362.87,Single-ply,SBD,M
Boys,74.84,10,Austin Hogan,Paradise,68.45,131.54,77.11,120.2,328.85,Single-ply,SBD,M
Boys,74.84,DQ,Devonte Hardamon,Seymour,73.35,,,,,Single-ply,SBD,M
Boys,74.84,DQ,Willie Hamon,Vernon,71.44,158.76,,,,Single-ply,SBD,M
Boys,74.84,DQ,Colton Bailey,Wichita Falls Rider,73.07,208.65,,,,Single-ply,SBD,M
Boys,74.84,DQ,Domanic Thrasher,Wichita Falls Rider,69.72,183.7,,,,Single-ply,SBD,M
Boys,74.84,DQ,Josam Contreras,Mineral Wells,68.54,136.08,,,,Single-ply,SBD,M
Boys,74.84,DQ,Drew Newman,Mineral Wells,69.35,120.2,,,,Single-ply,SBD,M
Boys,74.84,DQ,Jesse Herd,Jacksboro,68.9,172.37,,,,Single-ply,SBD,M
Boys,74.84,DQ,Brandon Mercer,Jacksboro,74.16,145.15,,,,Single-ply,SBD,M
Boys,74.84,DQ,Chase Reynolds,Paradise,74.84,,,,,Single-ply,SBD,M
Boys,74.84,DQ,Tristan Willard,Nocona,74.84,,,,,Single-ply,SBD,M
Boys,82.1,1,Ramon Salazar,Jacksboro,79.97,233.6,117.93,206.38,557.92,Single-ply,SBD,M
Boys,82.1,2,Travis Mallory,Mineral Wells,77.79,197.31,102.06,201.85,501.22,Single-ply,SBD,M
Boys,82.1,3,Jared Lott,Wichita Falls Rider,77.16,188.24,111.13,181.44,480.81,Single-ply,SBD,M
Boys,82.1,4,Hayden Brown,Paradise,75.25,206.38,97.52,167.83,471.74,Single-ply,SBD,M
Boys,82.1,5,Javier Perigrino,Wichita Falls,81.24,181.44,99.79,176.9,458.13,Single-ply,SBD,M
Boys,82.1,6,Orlando Haymon,Vernon,78.7,158.76,92.99,195.04,446.79,Single-ply,SBD,M
Boys,82.1,7,Tristen Sosa,Wichita Falls,81.78,158.76,95.25,154.22,408.23,Single-ply,SBD,M
Boys,82.1,8,Brady Hodges,Iowa Park,81.42,147.42,74.84,163.29,385.55,Single-ply,SBD,M
Boys,82.1,9,Nick Loney,Paradise,76.97,145.15,83.91,136.08,365.14,Single-ply,SBD,M
Boys,82.1,10,Bobby Norton,Iowa Park,81.51,127.01,83.91,147.42,358.34,Single-ply,SBD,M
Boys,82.1,DQ,Michael Elmore,Graham,78.38,170.1,,,,Single-ply,SBD,M
Boys,82.1,DQ,Josh McDowell,Paradise,82.1,,,,,Single-ply,SBD,M
Boys,82.1,DQ,Drew Carter,Paradise,82.1,,,,,Single-ply,SBD,M
Boys,89.81,1,Tyler Cobb,Paradise,86.14,247.21,117.93,213.19,578.33,Single-ply,SBD,M
Boys,89.81,2,Luke Bowling,Santo,85.41,206.38,111.13,206.38,523.9,Single-ply,SBD,M
Boys,89.81,3,Jarrett Roper,Paradise,86.59,197.31,133.81,190.51,521.63,Single-ply,SBD,M
Boys,89.81,4,Caiden Fenoglio,Nocona,85.96,183.7,129.27,197.31,510.29,Single-ply,SBD,M
Boys,89.81,5,Hunter Walls,Graham,88.63,222.26,108.86,179.17,510.29,Single-ply,SBD,M
Boys,89.81,6,Taylor Edwards,Paradise,85.77,201.85,115.67,188.24,505.76,Single-ply,SBD,M
Boys,89.81,7,Tyler Horne,Bridgeport,89.27,190.51,124.74,190.51,505.76,Single-ply,SBD,M
Boys,89.81,8,Jordan Carter,Paradise,85.32,192.78,124.74,183.7,501.22,Single-ply,SBD,M
Boys,89.81,9,Brandon Thompson,Jacksboro,89.58,183.7,106.59,206.38,496.68,Single-ply,SBD,M
Boys,89.81,10,Elijah Barron,Wichita Falls Rider,84.59,190.51,108.86,190.51,489.88,Single-ply,SBD,M
Boys,89.81,11,Ruan Lopez,Wichita Falls Rider,83.78,190.51,99.79,185.97,476.27,Single-ply,SBD,M
Boys,89.81,12,Brandon Pemberton,Decatur,83.14,154.22,79.38,170.1,403.7,Single-ply,SBD,M
Boys,89.81,13,Harrison Workman,Wichita Falls,87.32,149.69,92.99,154.22,396.89,Single-ply,SBD,M
Boys,89.81,14,Zach Wood,Paradise,85.87,145.15,86.18,147.42,378.75,Single-ply,SBD,M
Boys,89.81,DQ,Abacu Fuentes,Bridgeport,86.64,183.7,,,,Single-ply,SBD,M
Boys,99.79,1,Jacob Fleming,Graham,93.44,229.06,124.74,201.85,555.65,Single-ply,SBD,M
Boys,99.79,2,Devin Daume,Graham,94.44,213.19,127.01,210.92,551.11,Single-ply,SBD,M
Boys,99.79,3,Albert De La Cruz,Graham,95.8,208.65,120.2,213.19,542.04,Single-ply,SBD,M
Boys,99.79,4,Ej Lozado,Jacksboro,94.12,206.38,111.13,215.46,532.97,Single-ply,SBD,M
Boys,99.79,5,Dakota Williams #1,Decatur,98.29,195.04,99.79,179.17,474,Single-ply,SBD,M
Boys,99.79,6,Jackson Towery,Nocona,96.93,181.44,97.52,174.63,453.59,Single-ply,SBD,M
Boys,99.79,7,Graham Cowdrey,Decatur,91.85,172.37,99.79,172.37,444.52,Single-ply,SBD,M
Boys,99.79,8,Cody Messer,Nocona,91.67,181.44,90.72,161.03,433.18,Single-ply,SBD,M
Boys,99.79,9,Enrique Aleman,Vernon,98.2,158.76,77.11,163.29,399.16,Single-ply,SBD,M
Boys,99.79,DQ,Cody Ribble,Wichita Falls Rider,95.93,185.97,,,,Single-ply,SBD,M
Boys,99.79,DQ,Brandon Golden,Wichita Falls,93.67,199.58,,,,Single-ply,SBD,M
Boys,99.79,DQ,Bubba Johnson,Jacksboro,91.94,192.78,,,,Single-ply,SBD,M
Boys,99.79,DQ,Zack Woodruff,Paradise,99.79,,,,,Single-ply,SBD,M
Boys,109.77,1,Stephen Lane #2,Vernon,106.28,272.16,136.08,215.46,623.69,Single-ply,SBD,M
Boys,109.77,2,Ivan Gonzales,Graham,109.04,226.8,145.15,199.58,571.53,Single-ply,SBD,M
Boys,109.77,3,Derek Baynes,Graham,109.77,226.8,108.86,185.97,521.63,Single-ply,SBD,M
Boys,109.77,4,James Navarro,Wichita Falls Rider,108.36,201.85,115.67,197.31,514.83,Single-ply,SBD,M
Boys,109.77,5,Ben Hays,Graham,108.86,213.19,113.4,185.97,512.56,Single-ply,SBD,M
Boys,109.77,6,Jacob Cortez,Decatur,107.82,172.37,90.72,181.44,444.52,Single-ply,SBD,M
Boys,109.77,7,Jesse Villalobos,Iowa Park,103.74,167.83,102.06,151.95,421.84,Single-ply,SBD,M
Boys,109.77,8,Allen Martinez,Jacksboro,109.18,158.76,95.25,165.56,419.57,Single-ply,SBD,M
Boys,109.77,DQ,Matt Aguilar,Mineral Wells,104.01,,,,,Single-ply,SBD,M
Boys,124.74,1,Rowdy Harper,Iowa Park,111.9,183.7,104.33,183.7,471.74,Single-ply,SBD,M
Boys,124.74,2,Mason Goodwin,Seymour,111.08,158.76,104.33,161.03,424.11,Single-ply,SBD,M
Boys,124.74,DQ,Jack Cunningham,Wichita Falls Rider,121.34,,,,,Single-ply,SBD,M
Boys,124.74,DQ,Matthew Smith #23,Bridgeport,113.99,222.26,,,,Single-ply,SBD,M
Boys,124.74,DQ,Blaz Hernandez,Bridgeport,118.43,204.12,,,,Single-ply,SBD,M
Boys,124.74,DQ,Matt Tucker,Jacksboro,124.74,,,,,Single-ply,SBD,M
Boys,124.74,DQ,Levi Jenkins,Paradise,124.74,,,,,Single-ply,SBD,M
Boys,124.74+,1,Nathan Paschal,Graham,125.92,281.23,149.69,226.8,657.71,Single-ply,SBD,M
Boys,124.74+,2,Nick Ward,Iowa Park,127.32,244.94,122.47,213.19,580.6,Single-ply,SBD,M
Boys,124.74+,DQ,Blake Hailey,Decatur,135.49,,,,,Single-ply,SBD,M
Boys,124.74+,DQ,Sabastian Esquivel,Bridgeport,136.67,,,,,Single-ply,SBD,M
Boys,124.74+,DQ,Zach Graham,Nocona,138.3,195.04,,,,Single-ply,SBD,M
Boys,124.74+,DQ,Jeffrey Cooley,Jacksboro,125.19,,,,,Single-ply,SBD,M
Boys,124.74+,DQ,Luke Miller,Paradise,125.19,,,,,Single-ply,SBD,M
