Division,WeightClassKg,Place,Name,Team,BodyweightKg,Best3SquatKg,Best3BenchKg,Best3DeadliftKg,TotalKg,Equipment,Event,Sex,BirthDate
Boys,59.87,1,Josh Robinson,Centerville,59.42,111.13,74.84,120.2,306.17,Single-ply,SBD,M,
Boys,74.84,1,Luis Guillen,Jewett Leon,74.39,176.9,108.86,219.99,505.76,Single-ply,SBD,M,
Boys,74.84,2,Brent Hubbell,Centerville,73.21,183.7,113.4,197.31,494.42,Single-ply,SBD,M,
Boys,74.84,3,James Webb,Centerville,70.31,145.15,102.06,167.83,415.04,Single-ply,SBD,M,
Boys,74.84,4,Sye Lytle,Centerville,68.04,142.88,92.99,161.03,396.89,Single-ply,SBD,M,
Boys,74.84,5,Dd Starnes,Centerville,72.94,156.49,83.91,156.49,396.89,Single-ply,SBD,M,
Boys,74.84,6,Michael Locke,Centerville,73.48,133.81,92.99,165.56,392.36,Single-ply,SBD,M,
Boys,74.84,7,Zach Taylor,Centerville,68.04,142.88,102.06,142.88,387.82,Single-ply,SBD,M,
Boys,74.84,8,Taylor Evans #2,Jewett Leon,69.94,142.88,77.11,154.22,374.21,Single-ply,SBD,M,
Boys,82.1,1,Brayden Youree,Franklin,77.56,185.97,111.13,158.76,455.86,Single-ply,SBD,M,
Boys,82.1,2,Cameron Pate,Centerville,78.93,174.63,106.59,156.49,437.72,Single-ply,SBD,M,
Boys,82.1,3,Dude West,Centerville,78.93,154.22,86.18,167.83,408.23,Single-ply,SBD,M,
Boys,82.1,4,Nate Pedigo,Jewett Leon,76.48,136.08,97.52,165.56,399.16,Single-ply,SBD,M,
Boys,82.1,5,Miles Mendoza,Jewett Leon,75.43,124.74,86.18,163.29,374.21,Single-ply,SBD,M,
Boys,89.81,1,Bobby Washington,Franklin,83.01,219.99,142.88,188.24,551.11,Single-ply,SBD,M,
Boys,89.81,2,Russell Stegall,Franklin,85.64,188.24,120.2,192.78,501.22,Single-ply,SBD,M,
Boys,89.81,3,Cemion Smith,Franklin,86.18,142.88,83.91,149.69,376.48,Single-ply,SBD,M,
Boys,89.81,4,Sonny VanKampen,Jewett Leon,88.99,113.4,65.77,124.74,303.91,Single-ply,SBD,M,
Boys,89.81,DQ,Levodrick Phillips,Centerville,87.54,204.12,,197.31,,Single-ply,SBD,M,
Boys,99.79,1,Callan Shrode,Jewett Leon,92.17,188.24,108.86,161.03,458.13,Single-ply,SBD,M,
Boys,99.79,2,Nate Frank,Franklin,95.25,120.2,77.11,120.2,317.51,Single-ply,SBD,M,
Boys,109.77,1,Bj Kelly,Centerville,107.5,210.92,140.61,204.12,555.65,Single-ply,SBD,M,
Boys,109.77,2,Josh Anderson,Jewett Leon,104.78,170.1,106.59,199.58,476.27,Single-ply,SBD,M,
Boys,109.77,3,Trey Weiler,Jewett Leon,100.92,190.51,102.06,176.9,469.47,Single-ply,SBD,M,
Boys,124.74,1,Andrew Elmore,Franklin,119.57,226.8,142.88,188.24,557.92,Single-ply,SBD,M,
Boys,124.74,2,Keegan Wilson,Franklin,110.86,219.99,122.47,206.38,548.85,Single-ply,SBD,M,
Boys,124.74,3,Andrew Narro,Franklin,117.93,188.24,124.74,172.37,485.34,Single-ply,SBD,M,
