Division,WeightClassKg,Place,Name,Team,BodyweightKg,Best3SquatKg,Best3BenchKg,Best3DeadliftKg,TotalKg,Equipment,Event,Sex,BirthDate
Boys,51.71,1,Deondre Moody,Donna North,46.27,111.13,61.23,113.4,285.76,Single-ply,SBD,M,
Boys,51.71,DQ,Ruben Aguilar,Donna North,,81.65,,,,Single-ply,SBD,M,
Boys,55.79,1,Diego Agado,Weslaco,54.43,147.42,83.91,142.88,374.21,Single-ply,SBD,M,
Boys,59.87,1,Roy Stroman,Weslaco,58.51,192.78,111.13,183.7,487.61,Single-ply,SBD,M,
Boys,59.87,2,Eric Gonzalez,Weslaco,59.42,154.22,97.52,165.56,417.3,Single-ply,SBD,M,
Boys,67.13,1,Marcus Saenz,Weslaco,66.68,213.19,122.47,188.24,523.9,Single-ply,SBD,M,
Boys,67.13,2,Marcos Dominguez,Weslaco,66.22,210.92,124.74,183.7,519.36,Single-ply,SBD,M,
Boys,67.13,3,Sam Gracia,Weslaco,65.32,195.04,111.13,176.9,483.08,Single-ply,SBD,M,
Boys,67.13,4,Evan Zamora,Weslaco,66.68,185.97,102.06,190.51,478.54,Single-ply,SBD,M,
Boys,67.13,DQ,Jose Molina,Donna North,61.23,,,,,Single-ply,SBD,M,
Boys,74.84,1,Alex Benavidez,Donna North,74.39,217.72,138.35,197.31,553.38,Single-ply,SBD,M,
Boys,82.1,1,Sergio Lerma,Weslaco,80.29,272.16,133.81,272.16,678.12,Single-ply,SBD,M,
Boys,82.1,2,John Bustos,Donna North,81.19,258.55,145.15,208.65,612.35,Single-ply,SBD,M,
Boys,89.81,1,Jesus Benavidez,Donna North,88.9,204.12,108.86,163.29,476.27,Single-ply,SBD,M,
Boys,89.81,DQ,Ethan Zamora,Weslaco,87.54,,,,,Single-ply,SBD,M,
Boys,99.79,1,Larry Strickland,Weslaco,90.72,317.51,158.76,283.5,759.77,Single-ply,SBD,M,
Boys,99.79,2,Tony Gandaria,Donna North,99.34,267.62,179.17,235.87,682.66,Single-ply,SBD,M,
Boys,109.77,1,Fabian Martinez,Donna North,109.32,294.84,167.83,251.74,714.41,Single-ply,SBD,M,
Boys,109.77,2,Erasmo Garces,Weslaco,107.95,240.4,170.1,233.6,644.1,Single-ply,SBD,M,
Boys,109.77,3,Moises Ochoa,Donna North,105.69,208.65,115.67,174.63,498.95,Single-ply,SBD,M,
Boys,124.74,1,Andrew Reyes,Weslaco,115.21,247.21,154.22,224.53,625.96,Single-ply,SBD,M,
Boys,124.74,DQ,Edgar Otero,Donna North,119.29,,,,,Single-ply,SBD,M,
Boys,139.71,1,Roland Morales,Weslaco,125.19,283.5,185.97,235.87,705.34,Single-ply,SBD,M,
Boys,139.71,2,Isaiah Loya,Donna North,127.01,201.85,97.52,183.7,483.08,Single-ply,SBD,M,
