Sex,WeightClassKg,EntryDate,Name,BirthDate,Country,Bench1Kg,Bench2Kg,Bench3Kg,Best3BenchKg,Bench4Kg,TotalKg,BodyweightKg,Event,Equipment,Division,Place
M,49,2019-08-29,Luis Felipe Diaz Vasquez,1963-03-28,Venezuela,-109,111,-113,111,,111,49,B,Raw,Open,4
M,49,2019-08-29,Joao Maria Franca Junior,1995-10-20,Brazil,135,141,-150,141,,141,48.5,B,Raw,Open,1
M,49,2019-08-29,Jhonny Andres Morales Gonzalez,1999-01-28,Colombia,122,125,-129,125,,125,46.55,B,Raw,Open,2
M,49,2019-08-29,Cesar David Echeverria Morales,1982-10-08,Guatemala,100,-110,-110,100,,100,47.55,B,Raw,Open,6
M,49,2019-08-29,Rodrigo Villamarin,1997-08-22,Argentina,102,106,-110,106,,106,46.2,B,Raw,Open,5
M,49,2019-08-29,Lucas Manoel Dos Santos,2001-11-20,Brazil,120,123,-128,123,,123,48.3,B,Raw,Open,3
M,54,2019-08-29,Bruno Pinheiro Carra,1989-01-20,Brazil,155,163,-167,163,,163,53.8,B,Raw,Open,1
M,54,2019-08-29,David Montiel Caballero,1990-02-27,Mexico,-125,-125,125,125,,125,52.85,B,Raw,Open,4
M,54,2019-08-29,Juan Carlos Ortiz Cardenas,1979-05-27,Colombia,138,-142,-143,138,,138,53.6,B,Raw,Open,3
M,54,2019-08-29,Diego Alberto Quispe Ramos,1998-12-08,Peru,110,-117,-117,110,,110,52.55,B,Raw,Open,6
M,54,2019-08-29,Cesar Rubio Guerra,1980-10-05,Cuba,140,142,145,145,,145,53.4,B,Raw,Open,2
M,54,2019-08-29,Javier Ignacio Jimenez Cabrera,1997-06-17,Chile,-123,123,-126,123,,123,52.95,B,Raw,Open,5
M,59,2019-08-30,Niel Garcia Trelles,1973-05-29,Peru,135,-140,-152,135,,135,58.6,B,Raw,Open,5
M,59,2019-08-30,Ricardo Ortíz #1,1982-12-04,El Salvador,-85,-90,-90,,,,58.25,B,Raw,Open,DQ
M,59,2019-08-30,Luciano Bezerra Dantas,1981-05-20,Brazil,146,151,-158,151,,151,58.2,B,Raw,Open,2
M,59,2019-08-30,Yoander Arias Borges,1979-12-18,Cuba,-138,-138,138,138,,138,57.9,B,Raw,Open,4
M,59,2019-08-30,Juan Carlos Garrido Acevedo,1980-03-04,Chile,170,171,185,185,-187,185,57.8,B,Raw,Open,1
M,59,2019-08-30,Carlos Alberto Betancourt,1981-10-02,Venezuela,150,-153,-158,150,,150,57.7,B,Raw,Open,3
M,65,2019-08-30,Jorge Eduardo Carinao Cardenas,1991-02-18,Chile,176,-180,-182,176,,176,59.5,B,Raw,Open,2
M,65,2019-08-30,Christian Matthew Largo,1998-12-22,USA,-131,136,-140,136,,136,63.6,B,Raw,Open,5
M,65,2019-08-30,Herbert Enrique Aceituno Lopez,1985-11-01,El Salvador,-178,180,182,182,,182,63.8,B,Raw,Open,1
M,65,2019-08-30,Danilo Rodriguez Garcia,1966-07-19,Cuba,170,-175,-175,170,,170,62.5,B,Raw,Open,3
M,65,2019-08-30,Bryan Steven Balanta Barona,1996-10-19,Colombia,165,168,-177,168,,168,64.35,B,Raw,Open,4
M,72,2019-08-30,Rey Melchor Dimas Vasquez,1986-01-06,Panama,155,160,168,168,,168,71.15,B,Raw,Open,4
M,72,2019-08-30,Andres Mauricio Salazar Herrera,1983-03-13,Colombia,-163,163,-170,163,,163,70.05,B,Raw,Open,5
M,72,2019-08-30,Jackson Jose Blanco Perez,1982-04-29,Venezuela,168,-170,-170,168,,168,70.85,B,Raw,Open,3
M,72,2019-08-30,Luis Alexander Gonzalez-Poma,1995-11-12,USA,103,105,-110,105,,105,69.15,B,Raw,Open,10
M,72,2019-08-30,Javier Enrique Montenegro Cantillo,1988-08-03,Colombia,166,-169,170,170,,170,71.05,B,Raw,Open,2
M,72,2019-08-30,Jose Manuel Abud Coronado,1974-10-26,Dominican Republic,150,-155,-166,150,,150,69.55,B,Raw,Open,6
M,72,2019-08-30,Jose David Coronel,1986-12-15,Argentina,133,-140,-142,133,,133,71.85,B,Raw,Open,8
M,72,2019-08-30,Cristian Aguirre,1973-11-22,Chile,-140,140,143,143,,143,71.7,B,Raw,Open,7
M,72,2019-08-30,Miguel Enrique Siesquen Yluquis,1974-07-04,Peru,105,-110,110,110,,110,70.2,B,Raw,Open,9
M,72,2019-08-30,Ezequiel Correa,1987-10-23,Brazil,167,170,171,171,,171,71.2,B,Raw,Open,1
M,80,2019-08-31,Gabriel Zelaya Diaz,1976-02-19,Honduras,-115,-115,118,118,,118,77.3,B,Raw,Open,8
M,80,2019-08-31,Ailton Bento de Souza,1985-03-07,Brazil,173,175,178,178,,178,79.3,B,Raw,Open,3
M,80,2019-08-31,Jesus Manuel Rodriguez Vallejo,1988-11-18,Dominican Republic,163,-173,-175,163,,163,78.75,B,Raw,Open,4
M,80,2019-08-31,Fernando Jose Acevedo Gonzalez,1979-06-11,Nicaragua,-140,-140,-140,,,,78.95,B,Raw,Open,DQ
M,80,2019-08-31,Amaro Fica,1993-07-18,Chile,-137,137,-141,137,,137,76.05,B,Raw,Open,7
M,80,2019-08-31,Victoriano Mendoza Gonzalez,1984-03-04,Panama,133,-138,138,138,,138,79.9,B,Raw,Open,5
M,80,2019-08-31,Sebastian Castro Rajdl,1987-06-24,Chile,137,-141,-141,137,,137,74,B,Raw,Open,6
M,80,2019-08-31,Porfirio Francisco Arredondo Luna,1971-09-15,Mexico,177,-184,184,184,,184,78.1,B,Raw,Open,2
M,80,2019-08-31,Francisco Tulio Palomeque Palacios,1967-10-19,Colombia,190,-193,195,195,-198,195,78.95,B,Raw,Open,1
M,88,2019-08-31,Jainer Rafael Cantillo Guette,1975-01-29,Colombia,-210,-210,-210,,,,82.05,B,Raw,Open,DQ
M,88,2019-08-31,Oninger Jesus Drake Vega,1972-05-24,Cuba,-204,-204,-204,,,,85.25,B,Raw,Open,DQ
M,88,2019-08-31,Evanio Rodrigues da Silva,1984-09-02,Brazil,201,-206,-208,201,,201,85.1,B,Raw,Open,1
M,97,2019-08-31,Robert Alberto Yrigoyen Veliz,1979-04-25,Venezuela,-180,180,-188,180,,180,94.55,B,Raw,Open,3
M,97,2019-08-31,Ahmed Shafik,1973-11-10,USA,182,-191,192,192,,192,91.6,B,Raw,Open,1
M,97,2019-08-31,Lucas Ezequiel Gareca,1995-06-05,Argentina,160,-165,165,165,,165,96.05,B,Raw,Open,5
M,97,2019-08-31,Rodrigo Marques,1985-09-13,Brazil,186,192,-193,192,,192,92.1,B,Raw,Open,2
M,97,2019-08-31,Frank Herlando Feliu Ubilla,1981-12-23,Chile,-175,175,-183,175,,175,95.5,B,Raw,Open,4
M,107,2019-08-31,Jacob Schrom,1988-03-22,USA,190,197,200,200,,200,103.75,B,Raw,Open,4
M,107,2019-08-31,Fabio Torres Silva,1976-05-07,Colombia,-220,-220,220,220,-226.5,220,97.8,B,Raw,Open,2
M,107,2019-08-31,Mateus de Assis Silva,1997-05-27,Brazil,196,200,201,201,,201,105.2,B,Raw,Open,3
M,107,2019-08-31,José de Jesús Castillo Castillo,1984-08-24,Mexico,215,-226,226,226,,226,103.2,B,Raw,Open,1
M,107+,2019-08-31,Miguel Angel Melendez Made,1984-07-16,Mexico,171,-180,-182,171,,171,127.85,B,Raw,Open,2
M,107+,2019-08-31,Johannes Hernandez Melendez,1978-09-08,Puerto Rico,-135,-135,140,140,,140,154.5,B,Raw,Open,4
M,107+,2019-08-31,Jhon Freddy Castaneda Velasquez,1980-04-17,Colombia,205,-215,220,220,,220,126.1,B,Raw,Open,1
M,107+,2019-08-31,Christian Divino Porteiro,1977-10-20,Brazil,168,-175,-181,168,,168,127.85,B,Raw,Open,3
F,41,2019-08-29,Clara Sarahy Fuentes Monasterio,1997-08-12,Venezuela,-83,83,-86,83,,83,40.55,B,Raw,Open,2
F,41,2019-08-29,Lara Aparecida de Lima,2003-04-25,Brazil,76,77,81,81,-89,81,38.55,B,Raw,Open,3
F,41,2019-08-29,Leidy Rodriguez Rodriguez,1983-11-29,Cuba,-85,85,88,88,90,88,40.5,B,Raw,Open,1
F,45,2019-08-29,Maria Rizonaide Da Silva,1982-02-23,Brazil,74,79,-87,79,,79,44.75,B,Raw,Open,1
F,45,2019-08-29,Lourdes Maciel,1996-04-06,Argentina,58,-60,60,60,,60,42.25,B,Raw,Open,2
F,50,2019-08-29,Juana Noemi Vasquez Molina,1977-04-27,Peru,40,-47,-52,40,,40,49.25,B,Raw,Open,3
F,50,2019-08-29,Nudy Sarai Aguilar Carbajal,1977-02-21,Honduras,-25,-30,-35,,,,47.4,B,Raw,Open,DQ
F,50,2019-08-29,Wiunawis Nairobys Hernandez,1974-08-19,Venezuela,-85,-88,-88,,,,48.8,B,Raw,Open,DQ
F,50,2019-08-29,Maria Oliveira,1974-05-03,Brazil,70,85,88,88,-89,88,48.55,B,Raw,Open,1
F,50,2019-08-29,Mayra Alejandra Hernandez Godinez,1990-08-06,Mexico,79,83,-85,83,,83,45.95,B,Raw,Open,2
F,55,2019-08-29,Estelia Ospina Bastidas,1977-03-09,Venezuela,-68,68,-71,68,,68,54,B,Raw,Open,4
F,55,2019-08-29,Rene Belcassia Silva Souza,1989-05-12,Brazil,68,73,78,78,,78,53.9,B,Raw,Open,3
F,55,2019-08-29,Amalia Pérez Vazquez,1973-07-10,Mexico,110,115,120,120,-125,120,54.65,B,Raw,Open,1
F,55,2019-08-29,Camila Campos,1995-02-23,Chile,105,-108,-108,105,,105,54.35,B,Raw,Open,2
F,61,2019-08-30,Terezinha Santos,1971-11-02,Brazil,-63,-66,-66,,,,59.6,B,Raw,Open,DQ
F,61,2019-08-30,Miriam Isela Aguilar Jimenez,1979-02-18,Mexico,95,100,-105,100,,100,58.9,B,Raw,Open,1
F,67,2019-08-30,Mariana D'Andrea,1998-02-12,Brazil,112,117,122,122,,122,66.2,B,Raw,Open,1
F,67,2019-08-30,Pamela Dominique Munoz Rojas,1989-07-18,Chile,-65,-65,65,65,,65,64.4,B,Raw,Open,2
F,73,2019-08-30,Bertha Cecilia Fernandez Arango,1978-07-12,Colombia,105,109,111,111,,111,67.3,B,Raw,Open,1
F,73,2019-08-30,Amanda Aparecida Santos de Sousa,1991-09-09,Brazil,-92,93,-95,93,,93,71.25,B,Raw,Open,3
F,73,2019-08-30,Gladys Sanchez Vera,1986-02-02,Colombia,-92,-93,-94,,,,72.15,B,Raw,Open,DQ
F,73,2019-08-30,Maria Antonieta Ortiz,1982-01-20,Chile,-109,109,-112,109,,109,72.2,B,Raw,Open,2
F,73,2019-08-30,Angela Faria Teixeira,1969-07-17,Brazil,-92,92,-94,92,,92,69.75,B,Raw,Open,4
F,79,2019-08-31,Marion Alejandra Serrano Guajardo,1999-09-08,Chile,-105,105,-111,105,,105,78,B,Raw,Open,1
F,79,2019-08-31,Elizete Araujo,1975-03-24,Brazil,97,100,-105,100,,100,77.75,B,Raw,Open,2
F,86,2019-08-31,Marcia Cristina Menezes,1967-09-30,Brazil,-96,96,104,104,,104,85.4,B,Raw,Open,2
F,86,2019-08-31,Tayana Medeiros,1993-03-14,Brazil,115,-121,-121,115,121,115,85.15,B,Raw,Open,1
F,86,2019-08-31,Catalina Diaz Vilchis,1964-04-30,Mexico,90,100,-110,100,,100,85.7,B,Raw,Open,3
F,86+,2019-08-31,Perla Barcenas,1971-05-13,Mexico,130,135,-141,135,-141,135,97.4,B,Raw,Open,1
F,86+,2019-08-31,Maria del Socorro Lira Partida,1976-04-02,Mexico,105,110,-115,110,,110,113.55,B,Raw,Open,2
