Sex,WeightClassKg,EntryDate,Name,BirthDate,Country,Bench1Kg,Bench2Kg,Bench3Kg,Best3BenchKg,Bench4Kg,TotalKg,BodyweightKg,Event,Equipment,Division,Place
M,49,2018-12-06,Lucas Manoel Dos Santos,2001-11-20,Brazil,-107,-107,112,112,,112,48.4,B,Raw,Open,4
M,49,2018-12-06,Takashi Matsumoto,1969-10-11,Japan,-80,80,-90,80,,80,43.1,B,Raw,Open,8
M,49,2018-12-06,Joao Maria Franca Junior,1995-10-20,Brazil,-141,-141,141,141,,141,47.9,B,Raw,Open,1
M,49,2018-12-06,Luis Felipe Diaz Vasquez,1963-03-28,Venezuela,-100,105,-107,105,,105,45.4,B,Raw,Open,5
M,49,2018-12-06,Junior Alexander Perez Blandino,1994-12-14,Nicaragua,65,72,77,77,,77,44.9,B,Raw,Open,9
M,49,2018-12-06,Farman Basha,1974-03-25,India,-125,125,-141,125,,125,46.5,B,Raw,Open,2
M,49,2018-12-06,Jeremia Ngungi Maringa,1991-10-12,Kenya,105,-110,-112,105,,105,47.2,B,Raw,Open,6
M,49,2018-12-06,Alan Diaz,1992-08-18,Chile,60,-72,-72,60,,60,44.6,B,Raw,Open,10
M,49,2018-12-06,Jhonny Andres Morales Gonzalez,1999-01-28,Colombia,-105,111,113,113,,113,44.2,B,Raw,Open,3
M,49,2018-12-06,Rodrigo Villamarin,1997-08-22,Argentina,96,100,-106,100,,100,47.7,B,Raw,Open,7
M,54,2018-12-06,Bruno Pinheiro Carra,1989-01-20,Brazil,-165,-165,-165,,,,53.3,B,Raw,Open,DQ
M,54,2018-12-06,Javier Ignacio Jimenez Cabrera,1997-06-17,Chile,102,107,-110,107,,107,52.6,B,Raw,Open,4
M,54,2018-12-06,Juan Carlos Ortiz Cardenas,1979-05-27,Colombia,130,135,-140,135,,135,53.5,B,Raw,Open,1
M,54,2018-12-06,Diego Alberto Quispe Ramos,1998-12-08,Peru,80,-90,-95,80,,80,53.9,B,Raw,Open,5
M,54,2018-12-06,David Montiel Caballero,1990-02-27,Mexico,-116,116,122,122,,122,52.2,B,Raw,Open,2
M,54,2018-12-06,Blaze Tres Foster,1989-02-03,USA,-102,-110,-110,,,,53,B,Raw,Open,DQ
M,54,2018-12-06,Carlos Manuel Yajue Gomez,1998-06-12,Colombia,120,-125,-125,120,,120,52.6,B,Raw,Open,3
M,59,2018-12-07,Luciano Bezerra Dantas,1981-05-20,Brazil,-143,-143,-143,,,,58.1,B,Raw,Open,DQ
M,59,2018-12-07,Niel Garcia Trelles,1973-05-29,Peru,132,-142,-142,132,,132,58.8,B,Raw,Open,4
M,59,2018-12-07,Juan Carlos Garrido Acevedo,1980-03-04,Chile,170,177,-182,177,,177,58.3,B,Raw,Open,1
M,59,2018-12-07,Dylan Keith Sparks,1998-06-02,Canada,92,-96,-100,92,,92,56.5,B,Raw,Open,5
M,59,2018-12-07,Ricardo Ortíz #1,1982-12-04,El Salvador,-80,-85,-85,,,,57.1,B,Raw,Open,DQ
M,59,2018-12-07,Yongkai Qi,1998-11-08,China,130,150,160,160,,160,57.3,B,Raw,Open,2
M,59,2018-12-07,Elias Federico Medina,2001-04-29,Argentina,65,-67,-70,65,,65,56.7,B,Raw,Open,6
M,59,2018-12-07,Yoander Arias Borges,1979-12-18,Cuba,-132,-134,-134,,,,57.2,B,Raw,Open,DQ
M,59,2018-12-07,Omar Norbey Garcia Correa,1994-11-23,Colombia,133,-136,-143,133,,133,57,B,Raw,Open,3
M,65,2018-12-07,Daniel Alan Klavitter,1986-02-04,USA,-150,-160,-160,,,,63.8,B,Raw,Open,DQ
M,65,2018-12-07,Javier Enrique Montenegro Cantillo,1988-08-03,Colombia,148,154,-157,154,,154,64.4,B,Raw,Open,4
M,65,2018-12-07,Taiki Morii,1980-07-09,Japan,125,-133,-133,125,,125,63.7,B,Raw,Open,8
M,65,2018-12-07,Jorge Eduardo Carinao Cardenas,1991-02-18,Chile,165,170,175,175,,175,59.5,B,Raw,Open,1
M,65,2018-12-07,Christian Matthew Largo,1998-12-22,USA,-130,136,-142,136,,136,62.8,B,Raw,Open,5
M,65,2018-12-07,Daniel George Ferreira,2002-06-12,Canada,92,-97,-107,92,,92,62.4,B,Raw,Open,9
M,65,2018-12-07,Herbert Enrique Aceituno Lopez,1985-11-01,El Salvador,175,-178,-180,175,,175,63.3,B,Raw,Open,2
M,65,2018-12-07,Gabriel Magu Wanjiku,1987-06-14,Kenya,-130,130,135,135,,135,63.9,B,Raw,Open,6
M,65,2018-12-07,Justus Katumo Mutweia,1973-09-29,Kenya,-105,-110,-111,,,,63.4,B,Raw,Open,DQ
M,65,2018-12-07,Bryan Steven Balanta Barona,1996-10-19,Colombia,150,153,156,156,,156,63.3,B,Raw,Open,3
M,65,2018-12-07,Takashi Jo,1960-01-27,Japan,-125,-125,125,125,,125,63.3,B,Raw,Open,7
M,72,2018-12-08,Ezequiel Correa,1987-10-23,Brazil,161,166,-170,166,,166,71.7,B,Raw,Open,2
M,72,2018-12-08,Walter Oliveira Filho,1987-06-18,Brazil,146,153,-156,153,,153,71.3,B,Raw,Open,6
M,72,2018-12-08,Amaro Fica,1993-07-18,Chile,140,-144,-144,140,,140,71.4,B,Raw,Open,10
M,72,2018-12-08,Luis Alexander Gonzalez-Poma,1995-11-12,USA,80,85,101,101,,101,66.9,B,Raw,Open,14
M,72,2018-12-08,Andres Mauricio Salazar Herrera,1983-03-13,Colombia,-165,165,-169,165,,165,70.4,B,Raw,Open,3
M,72,2018-12-08,Rey Melchor Dimas Vasquez,1986-01-06,Panama,136,142,150,150,,150,69.5,B,Raw,Open,7
M,72,2018-12-08,Sebastian Castro Rajdl,1987-06-24,Chile,135,-140,-141,135,,135,71.5,B,Raw,Open,11
M,72,2018-12-08,Randall Alejandro Munguia Granados,1981-08-02,Costa Rica,-100,100,-110,100,,100,69.1,B,Raw,Open,15
M,72,2018-12-08,Edgardo Andres Rebucci,1986-08-21,Argentina,-135,-135,-135,,,,67.5,B,Raw,Open,DQ
M,72,2018-12-08,Jackson Jose Blanco Perez,1982-04-29,Venezuela,155,-160,-160,155,,155,70.8,B,Raw,Open,4
M,72,2018-12-08,Jose Manuel Abud Coronado,1974-10-26,Dominican Republic,-142,-142,142,142,,142,70.6,B,Raw,Open,8
M,72,2018-12-08,Jose David Coronel,1986-12-15,Argentina,-133,-133,133,133,,133,71,B,Raw,Open,12
M,72,2018-12-08,Fernando Jose Acevedo Gonzalez,1979-06-11,Nicaragua,100,,,100,,100,71.2,B,Raw,Open,16
M,72,2018-12-08,Sergey Meladze,1980-04-01,Turkmenistan,175,180,-187,180,,180,71.1,B,Raw,Open,1
M,72,2018-12-08,Fredy Pastor Landazuri Bolanos,1979-08-08,Colombia,-152,-152,153,153,,153,70.5,B,Raw,Open,5
M,72,2018-12-08,Victor Baez Santiago,1977-08-11,Mexico,135,140,-145,140,,140,70.4,B,Raw,Open,9
M,72,2018-12-08,Miguel Enrique Siesquen Yluquis,1974-07-04,Peru,100,105,115,115,,115,70.8,B,Raw,Open,13
M,72,2018-12-08,Jake Campbell Beaton,1988-05-30,Canada,90,-95,-102,90,,90,69.8,B,Raw,Open,17
M,80,2018-12-08,Omar Yesid Gomez Mosquera,1991-03-27,Colombia,-135,-138,-138,,,,77,B,Raw,Open,DQ
M,80,2018-12-08,Gabriel Antonio Vasquez Montes,1978-05-10,Panama,-100,-100,-100,,,,78.9,B,Raw,Open,DQ
M,80,2018-12-08,Andre Luiz Francisco Paz,1988-05-17,Brazil,-159,159,-176,159,,159,78,B,Raw,Open,3
M,80,2018-12-08,Tetsuya Nozawa,1973-05-01,Japan,120,125,-130,125,,125,77.4,B,Raw,Open,7
M,80,2018-12-08,Carlos Espinoza,1975-05-18,Venezuela,-155,-155,-155,,,,78.4,B,Raw,Open,DQ
M,80,2018-12-08,Jesus Manuel Rodriguez Vallejo,1988-11-18,Dominican Republic,-151,-151,-160,,,,79.4,B,Raw,Open,DQ
M,80,2018-12-08,Rafael de Jesus Sedano Garcia,1988-10-24,Mexico,145,-150,-150,145,,145,74.5,B,Raw,Open,4
M,80,2018-12-08,Gregory Raymond Chong,1987-02-17,Aruba,115,-116,-130,115,,115,79.5,B,Raw,Open,8
M,80,2018-12-08,Sudhir,1994-10-27,India,-182,-182,-184,,,,78.6,B,Raw,Open,DQ
M,80,2018-12-08,Porfirio Francisco Arredondo Luna,1971-09-15,Mexico,175,-183,185,185,,185,77.8,B,Raw,Open,1
M,80,2018-12-08,Oscar Andres Grueso Herrera,1998-03-23,Colombia,132,137,-139,137,,137,72.4,B,Raw,Open,5
M,80,2018-12-08,Francisco Tulio Palomeque Palacios,1967-10-19,Colombia,-185,-185,-186,,,,78.6,B,Raw,Open,DQ
M,80,2018-12-08,Ailton Bento de Souza,1985-03-07,Brazil,171,176,-186,176,,176,78.6,B,Raw,Open,2
M,80,2018-12-08,Victoriano Mendoza Gonzalez,1984-03-04,Panama,130,-135,-135,130,,130,77.7,B,Raw,Open,6
M,88,2018-12-09,Evanio Rodrigues da Silva,1984-09-02,Brazil,201,206,-208,206,,206,84.8,B,Raw,Open,2
M,88,2018-12-09,Marcos Matamala,1986-11-11,Chile,143,147,-153,147,,147,87.9,B,Raw,Open,6
M,88,2018-12-09,Sachin Chaudhary,1983-09-30,India,196,-198,198,198,,198,88,B,Raw,Open,3
M,88,2018-12-09,Masaharu Ishihara,1972-06-28,Japan,-140,-140,140,140,,140,86,B,Raw,Open,7
M,88,2018-12-09,Jainer Rafael Cantillo Guette,1975-01-29,Colombia,-213,-213,-213,,,,82.6,B,Raw,Open,DQ
M,88,2018-12-09,Ahmed Shafik,1973-11-10,USA,175,-186,-186,175,,175,86.1,B,Raw,Open,4
M,88,2018-12-09,Sergio Antonio Munoz Gutierrez,1984-07-22,Costa Rica,-115,-115,115,115,,115,84.8,B,Raw,Open,8
M,88,2018-12-09,Oninger Jesus Drake Vega,1972-05-24,Cuba,202,-206,207,207,,207,85.3,B,Raw,Open,1
M,88,2018-12-09,Sedric Roussel Watchou Kouokam,1986-02-19,Hungary,-170,170,-180,170,,170,85.5,B,Raw,Open,5
M,97,2018-12-09,Fabio Torres Silva,1976-05-07,Colombia,215,218,-225,218,,218,94.7,B,Raw,Open,1
M,97,2018-12-09,Frank Herlando Feliu Ubilla,1981-12-23,Chile,-177,-177,177,177,,177,94,B,Raw,Open,5
M,97,2018-12-09,Huichao Cai,1983-10-22,China,205,216,-220,216,,216,90.5,B,Raw,Open,2
M,97,2018-12-09,Robert Alberto Yrigoyen Veliz,1979-04-25,Venezuela,175,-183,-183,175,,175,93.9,B,Raw,Open,6
M,97,2018-12-09,Rodrigo Marques,1985-09-13,Brazil,-186,186,187,187,,187,93.5,B,Raw,Open,3
M,97,2018-12-09,Lucas Ezequiel Gareca,1995-06-05,Argentina,155,-160,-160,155,,155,95.3,B,Raw,Open,7
M,97,2018-12-09,Kevin William Ogar,1985-10-19,USA,-170,-170,-170,,,,96,B,Raw,Open,DQ
M,97,2018-12-09,Stefan Rosca,1990-08-06,Moldova,180,-186,186,186,,186,90.6,B,Raw,Open,4
M,97,2018-12-09,Kazuhito Sato,1980-05-21,Japan,-146,146,-151,146,,146,95.4,B,Raw,Open,8
M,107,2018-12-09,Jacob Schrom,1988-03-22,USA,-201,-202,-206,,,,102.8,B,Raw,Open,DQ
M,107,2018-12-09,José de Jesús Castillo Castillo,1984-08-24,Mexico,220,-232,232,232,,232,102.7,B,Raw,Open,1
M,107,2018-12-09,Mateus de Assis Silva,1997-05-27,Brazil,195,202,207,207,,207,103.5,B,Raw,Open,2
M,107+,2018-12-09,Jhon Freddy Castaneda Velasquez,1980-04-17,Colombia,206,209,212,212,-216,212,122.6,B,Raw,Open,1
M,107+,2018-12-09,Miguel Angel Melendez Made,1984-07-16,Mexico,-180,180,185,185,,185,123.4,B,Raw,Open,2
M,107+,2018-12-09,Christian Divino Porteiro,1977-10-20,Brazil,176,-181,-181,176,,176,128.7,B,Raw,Open,3
M,107+,2018-12-09,Antonio Deandre Martin,1989-02-17,USA,-206,-206,-211,,,,162.8,B,Raw,Open,DQ
M,107+,2018-12-09,Johannes Hernandez Melendez,1978-09-08,Puerto Rico,120,-127,-130,120,,120,132.2,B,Raw,Open,4
F,41,2018-12-06,Aura Cristina Poblador Granados,1995-03-23,Colombia,-78,81,85,85,,85,38.9,B,Raw,Open,1
F,41,2018-12-06,Lara Aparecida de Lima,2003-04-25,Brazil,70,-75,75,75,,75,37.7,B,Raw,Open,5
F,41,2018-12-06,Leidy Rodriguez Rodriguez,1983-11-29,Cuba,82,85,-87,85,,85,40.3,B,Raw,Open,2
F,41,2018-12-06,Clara Sarahy Fuentes Monasterio,1997-08-12,Venezuela,80,-83,83,83,,83,38.7,B,Raw,Open,3
F,41,2018-12-06,Hellen Kariuki,1992-04-15,Kenya,80,-85,-85,80,,80,39.8,B,Raw,Open,4
F,45,2018-12-06,Maria Rizonaide Da Silva,1982-02-23,Brazil,-78,79,-84,79,,79,42.9,B,Raw,Open,1
F,45,2018-12-06,Mayra Alejandra Hernandez Godinez,1990-08-06,Mexico,74,-78,-78,74,,74,42.8,B,Raw,Open,2
F,45,2018-12-06,Oriana del Carmen Teran Velazquez,1998-08-01,Venezuela,67,-70,-70,67,,67,44.8,B,Raw,Open,3
F,50,2018-12-06,Akiko Nakajima,1975-09-28,Japan,-53,-53,-53,,,,48.3,B,Raw,Open,DQ
F,50,2018-12-06,Nohemi Carabali,1988-02-18,Colombia,80,83,85,85,,85,47.4,B,Raw,Open,4
F,50,2018-12-06,Loida Zabala Ollero,1987-04-05,Spain,91,95,-97,95,,95,48.9,B,Raw,Open,1
F,50,2018-12-06,Wiunawis Nairobys Hernandez,1974-08-19,Venezuela,-83,-83,84,84,,84,48.8,B,Raw,Open,5
F,50,2018-12-06,Sakina Khatun,1989-06-20,India,85,89,-95,89,,89,46.1,B,Raw,Open,2
F,50,2018-12-06,Juana Noemi Vasquez Molina,1977-04-27,Peru,-40,40,-50,40,,40,49.5,B,Raw,Open,6
F,50,2018-12-06,Maria Oliveira,1974-05-03,Brazil,81,84,86,86,,86,47.5,B,Raw,Open,3
F,55,2018-12-07,Cuijuan Xiao,1986-04-19,China,108,113,-116,113,,113,53.9,B,Raw,Open,1
F,55,2018-12-07,Estelia Ospina Bastidas,1977-03-09,Venezuela,-65,65,-68,65,,65,53.1,B,Raw,Open,5
F,55,2018-12-07,Camila Campos,1995-02-23,Chile,102,106,-109,106,,106,54.5,B,Raw,Open,2
F,55,2018-12-07,Eri Macdonald,1983-05-17,Japan,-53,53,-57,53,,53,54.1,B,Raw,Open,6
F,55,2018-12-07,Miriam Isela Aguilar Jimenez,1979-02-18,Mexico,-92,92,-96,92,,92,53.8,B,Raw,Open,3
F,55,2018-12-07,Hikari Nakamura,1991-02-12,Japan,-42,-43,-45,,,,51.7,B,Raw,Open,DQ
F,55,2018-12-07,Rene Belcassia Silva Souza,1989-05-12,Brazil,-82,82,-92,82,,82,52.4,B,Raw,Open,4
F,61,2018-12-07,Naira Gomes,1969-01-01,Brazil,81,-84,86,86,,86,57.9,B,Raw,Open,3
F,61,2018-12-07,Eunice Adhiambo Oloo,1985-09-12,Kenya,-55,-56,56,56,,56,58.1,B,Raw,Open,4
F,61,2018-12-07,Amalia Pérez Vazquez,1973-07-10,Mexico,125,130,134,134,,134,60,B,Raw,Open,1
F,61,2018-12-07,Takako Tatsukawa,1976-03-26,Japan,47,-50,-50,47,,47,59.8,B,Raw,Open,5
F,61,2018-12-07,Terezinha Santos,1971-11-02,Brazil,79,83,87,87,,87,58.1,B,Raw,Open,2
F,61,2018-12-07,Aki Karumori,1972-07-16,Japan,-45,-45,-47,,,,56.7,B,Raw,Open,DQ
F,67,2018-12-07,Mariana D'Andrea,1998-02-12,Brazil,112,116,-120,116,-120,116,63.7,B,Raw,Open,1
F,67,2018-12-07,Kanako Mizue,1987-12-19,Japan,-48,48,51,51,,51,61.1,B,Raw,Open,5
F,67,2018-12-07,Bertha Cecilia Fernandez Arango,1978-07-12,Colombia,97,-100,-103,97,,97,64.3,B,Raw,Open,2
F,67,2018-12-07,Ana Lucia Pinto Ochoa,1993-06-30,Colombia,75,78,-82,78,,78,63.4,B,Raw,Open,3
F,67,2018-12-07,Viviane Silvestre,1979-08-24,Brazil,64,67,-70,67,,67,65.9,B,Raw,Open,4
F,73,2018-12-07,Gladys Sanchez Vera,1986-02-02,Colombia,83,-86,88,88,,88,71.2,B,Raw,Open,4
F,73,2018-12-07,Maria Antonieta Ortiz,1982-01-20,Chile,97,102,106,106,,106,71.3,B,Raw,Open,1
F,73,2018-12-07,Yesenia Colmenarez Retano,1992-05-24,Mexico,80,84,-88,84,,84,71.7,B,Raw,Open,5
F,73,2018-12-07,Angela Faria Teixeira,1969-07-17,Brazil,-87,-87,88,88,,88,69.4,B,Raw,Open,2
F,73,2018-12-07,Pamela Dominique Munoz Rojas,1989-07-18,Chile,62,65,-67,65,,65,69.7,B,Raw,Open,6
F,73,2018-12-07,Amanda Aparecida Santos de Sousa,1991-09-09,Brazil,-88,88,-89,88,,88,70.6,B,Raw,Open,3
F,79,2018-12-07,Maria Montserrat Alcoba Membrilla,1981-06-23,Spain,-92,-92,92,92,,92,74.4,B,Raw,Open,6
F,79,2018-12-07,Marcia Cristina Menezes,1967-09-30,Brazil,93,99,-106,99,,99,77.8,B,Raw,Open,3
F,79,2018-12-07,Joyce Wambui Njuguna,1976-04-17,Kenya,-95,-97,97,97,,97,75.5,B,Raw,Open,4
F,79,2018-12-07,Mayagozel Ekeyeva,1986-05-05,Turkmenistan,104,108,112,112,,112,77.1,B,Raw,Open,1
F,79,2018-12-07,Elizete Araujo,1975-03-24,Brazil,-95,-95,95,95,,95,77.9,B,Raw,Open,5
F,79,2018-12-07,Marion Alejandra Serrano Guajardo,1999-09-08,Chile,-102,-102,103,103,106,103,78.1,B,Raw,Open,2
F,86,2018-12-08,Maria Rita De Oliveira,1999-01-13,Brazil,72,-76,-79,72,,72,79.8,B,Raw,Open,4
F,86,2018-12-08,Tayana Medeiros,1993-03-14,Brazil,-105,105,-111,105,,105,84.1,B,Raw,Open,1
F,86,2018-12-08,Catalina Diaz Vilchis,1964-04-30,Mexico,80,85,-105,85,,85,83.3,B,Raw,Open,2
F,86,2018-12-08,Claudia Magaly Miranda Orantes,1978-05-27,Mexico,76,78,80,80,,80,79.7,B,Raw,Open,3
F,86+,2018-12-08,Karolina Lingyte,1989-01-02,Lithuania,75,87,91,91,,91,88.4,B,Raw,Open,3
F,86+,2018-12-08,Polina Katsman,1966-10-07,Israel,-116,-116,-116,,,,104.6,B,Raw,Open,DQ
F,86+,2018-12-08,Perla Barcenas,1971-05-13,Mexico,130,135,140,140,-143,140,96.3,B,Raw,Open,1
F,86+,2018-12-08,Maria del Socorro Lira Partida,1976-04-02,Mexico,90,95,100,100,,100,111.8,B,Raw,Open,2
