Division,WeightClassKg,Place,Name,Team,BodyweightKg,Best3SquatKg,Best3BenchKg,Best3DeadliftKg,TotalKg,Equipment,Event,Sex,BirthDate
Boys,51.71,1,Brian Zambrano,Harlingen South,51.44,104.33,52.16,117.93,274.42,Single-ply,SBD,M,
Boys,51.71,2,Ethan Hernandez,Harlingen South,48.81,99.79,54.43,113.4,267.62,Single-ply,SBD,M,
Boys,55.79,1,Adrian Garcia,Lyford,55.79,131.54,83.91,136.08,351.53,Single-ply,SBD,M,
Boys,59.87,1,Gabriel Chavez,Lyford,59.33,165.56,74.84,174.63,415.04,Single-ply,SBD,M,
Boys,59.87,2,Isaac Prieto,Lyford,57.79,147.42,81.65,149.69,378.75,Single-ply,SBD,M,
Boys,67.13,1,Tyler McClaugherty,Lyford,66.41,206.38,104.33,204.12,514.83,Single-ply,SBD,M,
Boys,67.13,2,Ashton Garcia,Donna,65.32,111.13,68.04,97.52,276.69,Single-ply,SBD,M,
Boys,74.84,1,Devon Mendoza,Lyford,73.75,206.38,117.93,183.7,508.02,Single-ply,SBD,M,
Boys,74.84,2,Victor Rubalcaba,Lyford,74.48,156.49,102.06,165.56,424.11,Single-ply,SBD,M,
Boys,74.84,3,Anthony Cruz,Harlingen,67.68,124.74,92.99,142.88,360.61,Single-ply,SBD,M,
Boys,82.1,1,Eric Zamora,Harlingen,79.83,149.69,97.52,161.03,408.23,Single-ply,SBD,M,
Boys,82.1,2,Thomas Larios,Harlingen,79.38,124.74,90.72,142.88,358.34,Single-ply,SBD,M,
Boys,89.81,1,Enrique Mabulay,Harlingen South,88.18,204.12,106.59,204.12,514.83,Single-ply,SBD,M,
Boys,89.81,2,Joel Ramirez,Donna,83.46,176.9,92.99,158.76,428.64,Single-ply,SBD,M,
Boys,89.81,3,Ryan Ortiz,Harlingen South,85.28,170.1,90.72,165.56,426.38,Single-ply,SBD,M,
Boys,89.81,4,Ryan Ramirez,Donna,84.28,163.29,86.18,,249.48,Single-ply,SB,M,
Boys,99.79,1,Aric Singleterry,Donna,97.16,226.8,133.81,183.7,544.31,Single-ply,SBD,M,
Boys,99.79,2,Izaiah Bell,Harlingen,96.98,210.92,124.74,183.7,519.36,Single-ply,SBD,M,
Boys,99.79,3,Gabriel Ortiz,Donna,98.34,204.12,124.74,183.7,512.56,Single-ply,SBD,M,
Boys,99.79,4,Tony Ruiz,Donna,91.08,172.37,88.45,113.4,374.21,Single-ply,SBD,M,
Boys,99.79,4,Abraham Ramirez #3,Lyford,95.25,181.44,129.27,176.9,487.61,Single-ply,SBD,M,
Boys,99.79,5,Isaac Torres,Harlingen South,94.71,183.7,124.74,172.37,480.81,Single-ply,SBD,M,
Boys,99.79,6,Matt Fernandez,Donna,99.79,176.9,113.4,142.88,433.18,Single-ply,SBD,M,
Boys,99.79,DQ,Roy Gresham,Harlingen,91.9,154.22,,,,Single-ply,SBD,M,
Boys,99.79,DQ,Oscar Lupercio,Lyford,97.98,219.99,140.61,,,Single-ply,SBD,M,
Boys,99.79,DQ,Elijah Vela,Lyford,97.34,181.44,108.86,,,Single-ply,SBD,M,
Boys,109.77,1,Noah Gonzalez,Harlingen,105.87,247.21,156.49,215.46,619.15,Single-ply,SBD,M,
Boys,109.77,2,Carlos Martinez,Lyford,100.61,222.26,127.01,231.33,580.6,Single-ply,SBD,M,
Boys,109.77,3,Martin Alvarez,Harlingen South,108.05,170.1,111.13,170.1,451.32,Single-ply,SBD,M,
Boys,124.74,1,Figueroa Noah,Harlingen,111.77,215.46,147.42,226.8,589.67,Single-ply,SBD,M,
Boys,124.74,2,Nathaniel Huerta,Harlingen,110.5,217.72,136.08,226.8,580.6,Single-ply,SBD,M,
Boys,124.74,3,Caleb Torres,Donna,115.39,204.12,117.93,190.51,512.56,Single-ply,SBD,M,
Boys,124.74,4,Carlos Torres,Donna,117.57,217.72,106.59,183.7,508.02,Single-ply,SBD,M,
Boys,124.74,5,Juan Meza,Donna,115.21,181.44,102.06,142.88,426.38,Single-ply,SBD,M,
Boys,139.71,1,Caleb Davis,Harlingen South,139.25,272.16,174.63,238.14,684.92,Single-ply,SBD,M,
Boys,139.71,2,Juan Vargas,Donna,132.81,190.51,136.08,172.37,498.95,Single-ply,SBD,M,
Boys,139.71,3,Derick Perez,Harlingen,126.55,151.95,92.99,174.63,419.57,Single-ply,SBD,M,
Boys,139.71+,1,Dexter Delgado,Harlingen South,161.48,272.16,167.83,213.19,653.17,Single-ply,SBD,M,
Boys,139.71+,2,Ty Mattingly,Harlingen South,158.3,192.78,108.86,170.1,471.74,Single-ply,SBD,M,
Boys,,NS,Kian Torres,Harlingen,,,,,,Single-ply,SBD,M,
Boys,,NS,Ramon Castro,Lyford,,,,,,Single-ply,SBD,M,
