Division,WeightClassKg,Place,Name,Team,BodyweightKg,Best3SquatKg,Best3BenchKg,Best3DeadliftKg,TotalKg,Equipment,Event,Sex
Boys,51.71,1,Darius Rivera,Princeton,50.35,117.93,65.77,127.01,310.71,Single-ply,SBD,M
Boys,51.71,2,Dillan Cromeens,Nevada Community,51.71,111.13,61.23,115.67,288.03,Single-ply,SBD,M
Boys,51.71,3,Hunter McDaniel,Caddo Mills,50.8,92.99,65.77,111.13,269.89,Single-ply,SBD,M
Boys,51.71,4,Ramon Sánchez,Lone Oak,46.72,74.84,52.16,108.86,235.87,Single-ply,SBD,M
Boys,51.71,5,Garrison Burkins,Princeton,45.36,95.25,36.29,99.79,231.33,Single-ply,SBD,M
Boys,51.71,6,Matthew Schuman,Lone Oak,47.63,74.84,38.56,97.52,210.92,Single-ply,SBD,M
Boys,51.71,7,Trent Maxwell,Caddo Mills,42.18,65.77,36.29,79.38,181.44,Single-ply,SBD,M
Boys,55.79,1,DeArius Mitchell,Greenville,55.79,142.88,68.04,149.69,360.61,Single-ply,SBD,M
Boys,55.79,2,Brion McKee,Paris Chisum,53.52,136.08,63.5,131.54,331.12,Single-ply,SBD,M
Boys,55.79,3,Abram Lopez,Terrell,52.62,88.45,58.97,99.79,247.21,Single-ply,SBD,M
Boys,59.87,1,Robert Landers,Royse City,59.87,163.29,90.72,199.58,453.59,Single-ply,SBD,M
Boys,59.87,2,Alfred Champion,Greenville,59.42,181.44,90.72,176.9,449.06,Single-ply,SBD,M
Boys,59.87,3,Eric Stanfield,Greenville,59.42,136.08,81.65,133.81,351.53,Single-ply,SBD,M
Boys,59.87,4,Christian Aguirre,Greenville,58.51,124.74,77.11,129.27,331.12,Single-ply,SBD,M
Boys,67.13,1,Fillip Gann,Paris Chisum,66.22,190.51,108.86,179.17,478.54,Single-ply,SBD,M
Boys,67.13,2,DeTravion Turner,Terrell,67.13,167.83,90.72,185.97,444.52,Single-ply,SBD,M
Boys,67.13,3,Paul Blasingame,Nevada Community,66.68,174.63,95.25,172.37,442.25,Single-ply,SBD,M
Boys,67.13,4,Dustin Louth,Princeton,62.6,156.49,74.84,174.63,405.97,Single-ply,SBD,M
Boys,67.13,5,David Eacret,Greenville,64.86,151.95,83.91,158.76,394.63,Single-ply,SBD,M
Boys,67.13,6,Kason Freelen,Lone Oak,62.37,147.42,88.45,154.22,390.09,Single-ply,SBD,M
Boys,67.13,7,Alex Ramsy,Royse City,65.32,142.88,88.45,158.76,390.09,Single-ply,SBD,M
Boys,67.13,8,Sam Pitts,Paris Chisum,66.22,158.76,83.91,140.61,383.29,Single-ply,SBD,M
Boys,67.13,9,Juan Casteneda,Princeton,63.05,133.81,83.91,158.76,376.48,Single-ply,SBD,M
Boys,67.13,10,Byran Davidson,Lone Oak,64.86,151.95,74.84,149.69,376.48,Single-ply,SBD,M
Boys,67.13,11,Erik Ramirez,Nevada Community,62.14,142.88,90.72,136.08,369.68,Single-ply,SBD,M
Boys,67.13,12,Savon Miles,Princeton,62.14,145.15,74.84,145.15,365.14,Single-ply,SBD,M
Boys,67.13,13,Jordan Ryan,Lone Oak,61.69,124.74,88.45,149.69,362.87,Single-ply,SBD,M
Boys,67.13,14,Chris Doyle,Royse City,62.14,133.81,83.91,145.15,362.87,Single-ply,SBD,M
Boys,67.13,15,Eric Quiroz,Greenville,64.41,136.08,90.72,124.74,351.53,Single-ply,SBD,M
Boys,67.13,16,Anthony Deville,Canton,63.96,122.47,79.38,133.81,335.66,Single-ply,SBD,M
Boys,67.13,17,Hans Hernandez,Commerce,65.32,122.47,77.11,136.08,335.66,Single-ply,SBD,M
Boys,67.13,18,Grayson Addudell,Canton,66.22,122.47,81.65,131.54,335.66,Single-ply,SBD,M
Boys,67.13,19,Kiandre Young,Terrell,61.23,124.74,72.57,136.08,333.39,Single-ply,SBD,M
Boys,67.13,20,Sam Reid,Lone Oak,67.04,111.13,86.18,131.54,328.85,Single-ply,SBD,M
Boys,74.84,21,Nathan Opper,Lone Oak,67.36,99.79,70.31,124.74,294.84,Single-ply,SBD,M
Boys,67.13,22,Tyler Murphy,Commerce,60.33,92.99,56.7,115.67,265.35,Single-ply,SBD,M
Boys,67.13,23,Dakota Gannon,Lone Oak,62.6,65.77,47.63,102.06,215.46,Single-ply,SBD,M
Boys,67.13,DQ,Isaiah Whitehead,Lone Oak,63.05,,,,,Single-ply,SBD,M
Boys,67.13,DQ,Brito Felix,Royse City,61.69,136.08,,,,Single-ply,SBD,M
Boys,74.84,1,Caleb Skahan,Caddo Mills,71.67,226.8,117.93,215.46,560.19,Single-ply,SBD,M
Boys,74.84,2,Austin Martin #3,Greenville,72.57,226.8,127.01,192.78,546.58,Single-ply,SBD,M
Boys,74.84,3,Marcus Newby,Caddo Mills,69.4,204.12,106.59,199.58,510.29,Single-ply,SBD,M
Boys,74.84,4,Brad Gann,Paris Chisum,70.76,204.12,104.33,185.97,494.42,Single-ply,SBD,M
Boys,74.84,5,Travis Bearden,Canton,71.67,179.17,111.13,179.17,469.47,Single-ply,SBD,M
Boys,74.84,6,Justin Jones,Princeton,73.94,188.24,97.52,176.9,462.66,Single-ply,SBD,M
Boys,74.84,7,Marcus Cantera,Commerce,71.67,167.83,113.4,179.17,460.4,Single-ply,SBD,M
Boys,74.84,8,Ernesto Franco,Royse City,73.48,183.7,102.06,165.56,451.32,Single-ply,SBD,M
Boys,74.84,9,Trevor White,Greenville,73.94,170.1,95.25,163.29,428.64,Single-ply,SBD,M
Boys,74.84,10,Micheal Lay,Commerce,73.48,167.83,113.4,142.88,424.11,Single-ply,SBD,M
Boys,74.84,11,Zach Douglas,Lone Oak,71.67,163.29,99.79,154.22,417.3,Single-ply,SBD,M
Boys,74.84,12,Hayden Malone,Lone Oak,72.12,145.15,106.59,149.69,401.43,Single-ply,SBD,M
Boys,74.84,13,Jace Hart,Lone Oak,70.4,163.29,79.38,151.95,394.63,Single-ply,SBD,M
Boys,74.84,14,Dustin Ashley,Canton,74.39,140.61,86.18,158.76,385.55,Single-ply,SBD,M
Boys,74.84,15,Ezra Asbury,Lone Oak,70.58,147.42,88.45,147.42,383.29,Single-ply,SBD,M
Boys,74.84,16,Austin Corn,Terrell,72.12,111.13,86.18,142.88,340.19,Single-ply,SBD,M
Boys,74.84,17,Tayelor Doty,Greenville,68.95,111.13,83.91,131.54,326.59,Single-ply,SBD,M
Boys,74.84,18,Otto Kerr,Nevada Community,73.03,124.74,74.84,127.01,326.59,Single-ply,SBD,M
Boys,74.84,19,Tanner McMillian,Royse City,71.21,106.59,77.11,124.74,308.44,Single-ply,SBD,M
Boys,74.84,DQ,Andre Crow,Lone Oak,73.48,129.27,92.99,,,Single-ply,SBD,M
Boys,74.84,DQ,Tyler White #5,Lone Oak,73.03,113.4,,136.08,,Single-ply,SBD,M
Boys,74.84,DQ,Tony Rios,Greenville,72.57,195.04,,,,Single-ply,SBD,M
Boys,74.84,DQ,Marcio Velasquez,Nevada Community,72.57,185.97,120.2,,,Single-ply,SBD,M
Boys,82.1,1,Gabe Conner,Commerce,81.19,181.44,113.4,210.92,505.76,Single-ply,SBD,M
Boys,82.1,2,Adam Strickland,Nevada Community,78.47,181.44,113.4,192.78,487.61,Single-ply,SBD,M
Boys,82.1,3,Brandon Rodriguez,Terrell,78.93,181.44,117.93,185.97,485.34,Single-ply,SBD,M
Boys,82.1,4,Bryce Sanford,Canton,78.93,190.51,104.33,174.63,469.47,Single-ply,SBD,M
Boys,82.1,5,Max Noriega,Greenville,77.56,174.63,106.59,172.37,453.59,Single-ply,SBD,M
Boys,82.1,6,Corey Barron,Nevada Community,81.19,174.63,95.25,163.29,433.18,Single-ply,SBD,M
Boys,82.1,7,Dakota Hesskew,Canton,79.83,158.76,102.06,170.1,430.91,Single-ply,SBD,M
Boys,82.1,8,Tyson White,Lone Oak,79.38,156.49,88.45,147.42,392.36,Single-ply,SBD,M
Boys,82.1,9,Joel Dunn,Royse City,81.65,158.76,90.72,142.88,392.36,Single-ply,SBD,M
Boys,82.1,10,Elijah Hentley,Royse City,82.1,147.42,92.99,147.42,387.82,Single-ply,SBD,M
Boys,82.1,11,Tyler Barnhart,Lone Oak,79.83,129.27,79.38,131.54,340.19,Single-ply,SBD,M
Boys,82.1,DQ,Blake Langford,Lone Oak,78.93,,,,,Single-ply,SBD,M
Boys,82.1,DQ,Tyler Killian,Lone Oak,80.74,,47.63,115.67,,Single-ply,SBD,M
Boys,82.1,DQ,Jimmy Hill,Caddo Mills,80.74,188.24,111.13,,,Single-ply,SBD,M
Boys,82.1,DQ,Mason Justiss,Paris Chisum,76.2,188.24,,,,Single-ply,SBD,M
Boys,82.1,DQ,Caleb Womack,Lone Oak,79.15,226.8,,215.46,,Single-ply,SBD,M
Boys,89.81,1,Triston Leaks,Canton,89.81,226.8,147.42,235.87,610.08,Single-ply,SBD,M
Boys,89.81,2,Matt Cortez,Royse City,89.36,247.21,136.08,201.85,585.13,Single-ply,SBD,M
Boys,89.81,3,DeVante Buchanan,Greenville,86.18,213.19,122.47,192.78,528.44,Single-ply,SBD,M
Boys,89.81,4,Cj Bryant,Princeton,89.36,188.24,106.59,181.44,476.27,Single-ply,SBD,M
Boys,89.81,5,Tyler McClain,Lone Oak,84.82,170.1,102.06,190.51,462.66,Single-ply,SBD,M
Boys,89.81,6,Jarred Hogue,Canton,87.54,179.17,102.06,172.37,453.59,Single-ply,SBD,M
Boys,89.81,7,Sam Rushing,Royse City,85.28,170.1,102.06,167.83,439.98,Single-ply,SBD,M
Boys,89.81,8,Thomas Johnson,Royse City,82.55,172.37,106.59,158.76,437.72,Single-ply,SBD,M
Boys,89.81,9,Trenton Williams,Princeton,86.64,167.83,97.52,165.56,430.91,Single-ply,SBD,M
Boys,89.81,10,Chance Hamilton,Greenville,89.36,158.76,95.25,163.29,417.3,Single-ply,SBD,M
Boys,89.81,11,Braylon Champion,Greenville,87.54,136.08,83.91,151.95,371.95,Single-ply,SBD,M
Boys,89.81,12,Drew Carmona,Terrell,88,124.74,88.45,147.42,360.61,Single-ply,SBD,M
Boys,89.81,DQ,Gary Wallace,Lone Oak,83.91,102.06,74.84,,,Single-ply,SBD,M
Boys,89.81,DQ,Jarred Loftes,Royse City,89.36,142.88,70.31,,,Single-ply,SBD,M
Boys,89.81,DQ,Jon Boehler,Paris Chisum,83.01,163.29,,,,Single-ply,SBD,M
Boys,99.79,1,Lorenzo Calvillo,Clarksville,96.62,204.12,142.88,204.12,551.11,Single-ply,SBD,M
Boys,99.79,2,Taylor Davis #5,Princeton,99.34,215.46,124.74,208.65,548.85,Single-ply,SBD,M
Boys,99.79,3,Kaylnn Miller,Paris Chisum,95.71,210.92,127.01,183.7,521.63,Single-ply,SBD,M
Boys,99.79,4,Chance Price,Canton,93.44,192.78,104.33,181.44,478.54,Single-ply,SBD,M
Boys,99.79,5,Chris Tangaro,Canton,92.53,158.76,149.69,165.56,474,Single-ply,SBD,M
Boys,99.79,6,Ian Lackey,Commerce,92.99,181.44,104.33,183.7,469.47,Single-ply,SBD,M
Boys,99.79,7,Derran McQueen,Royse City,99.34,167.83,97.52,181.44,446.79,Single-ply,SBD,M
Boys,99.79,8,Geremy Williams,Clarksville,96.16,149.69,88.45,142.88,381.02,Single-ply,SBD,M
Boys,99.79,9,Kody Quick,Lone Oak,97.98,111.13,74.84,147.42,333.39,Single-ply,SBD,M
Boys,109.77,1,Damion Foster,Royse City,109.32,258.55,147.42,249.48,655.44,Single-ply,SBD,M
Boys,109.77,2,Jose Ramirez #1,Royse City,108.86,247.21,158.76,210.92,616.89,Single-ply,SBD,M
Boys,109.77,3,Robert Wilcox,Princeton,101.15,201.85,117.93,219.99,539.77,Single-ply,SBD,M
Boys,109.77,4,Britain Lane,Greenville,108.86,176.9,136.08,204.12,517.1,Single-ply,SBD,M
Boys,109.77,5,Ben Dodson,Terrell,103.87,204.12,99.79,181.44,485.34,Single-ply,SBD,M
Boys,109.77,6,Roger Chavez,Royse City,102.97,195.04,117.93,158.76,471.74,Single-ply,SBD,M
Boys,109.77,7,Brandon Ramirez,Commerce,104.78,151.95,97.52,158.76,408.23,Single-ply,SBD,M
Boys,109.77,8,Hunter Smith #1,Greenville,103.42,145.15,99.79,158.76,403.7,Single-ply,SBD,M
Boys,109.77,9,Oswaldo Castrada,Royse City,106.59,145.15,88.45,154.22,387.82,Single-ply,SBD,M
Boys,109.77,DQ,Cortez Crosby,Commerce,107.5,254.01,,,,Single-ply,SBD,M
Boys,124.74,1,Branden Blain,Caddo Mills,119.75,249.48,158.76,181.44,589.67,Single-ply,SBD,M
Boys,124.74,2,Shakiem Woodberry,Clarksville,123.38,158.76,154.22,199.58,512.56,Single-ply,SBD,M
Boys,124.74,3,Josh Martinez,Royse City,114.31,183.7,124.74,183.7,492.15,Single-ply,SBD,M
Boys,124.74,4,Rod Jackson,Commerce,124.74,190.51,106.59,195.04,492.15,Single-ply,SBD,M
Boys,124.74,5,Jorge Rodriguez,Greenville,113.85,190.51,113.4,172.37,476.27,Single-ply,SBD,M
Boys,124.74,6,Mitchell Wheat,Greenville,112.49,136.08,74.84,145.15,356.07,Single-ply,SBD,M
Boys,124.74,7,Micha Radney,Lone Oak,114.21,117.93,92.99,142.88,353.8,Single-ply,SBD,M
Boys,124.74,8,Shelbie Anderson,Caddo Mills,119.75,124.74,88.45,124.74,337.93,Single-ply,SBD,M
Boys,124.74+,1,Tavian Taylor,Terrell,128.82,260.82,154.22,208.65,623.69,Single-ply,SBD,M
Boys,124.74+,2,Chris Whitaker,Caddo Mills,133.81,249.48,147.42,208.65,605.55,Single-ply,SBD,M
Boys,124.74+,3,Donovan White,Princeton,130.63,213.19,122.47,251.74,587.4,Single-ply,SBD,M
Boys,124.74+,4,Marquis Champion,Greenville,146.06,170.1,117.93,188.24,476.27,Single-ply,SBD,M
Boys,124.74+,5,Caleb Jenkins,Lone Oak,136.98,158.76,88.45,133.81,381.02,Single-ply,SBD,M
Boys,,NS,Dalton Krodle,Commerce,,,,,,Single-ply,SBD,M
Boys,,NS,Dominique Wilson,Commerce,,,,,,Single-ply,SBD,M
Boys,,NS,Xavier Rodriguez,Clarksville,,,,,,Single-ply,SBD,M
Boys,,NS,Quan Bell,Clarksville,,,,,,Single-ply,SBD,M
Boys,,NS,Isaiah Smith,Caddo Mills,,,,,,Single-ply,SBD,M
Boys,,NS,Jacob Tillett,Caddo Mills,,,,,,Single-ply,SBD,M
Boys,,NS,San Marcos Pratt,Paris Chisum,,,,,,Single-ply,SBD,M
Boys,,NS,Hunter Hayes,Nevada Community,,,,,,Single-ply,SBD,M
Boys,,NS,Corey Rogers,Nevada Community,,,,,,Single-ply,SBD,M
