Division,WeightClassKg,Place,Name,Team,BodyweightKg,Best3SquatKg,Best3BenchKg,Best3DeadliftKg,TotalKg,Equipment,Event,Sex
Boys,51.71,1,Austin Mullennix,Sadler S & S Cons,51.71,170.1,83.91,151.95,405.97,Single-ply,SBD,M
Boys,51.71,2,Noah Hernandez,Lake Worth,51.26,138.35,77.11,147.42,362.87,Single-ply,SBD,M
Boys,51.71,3,Brandon Horst,Sanger,50.8,136.08,77.11,147.42,360.61,Single-ply,SBD,M
Boys,51.71,4,Jacob Eckhart,Bowie,51.44,102.06,54.43,108.86,265.35,Single-ply,SBD,M
Boys,51.71,5,Trais Sanchez,Sanger,49.9,90.72,54.43,104.33,249.48,Single-ply,SBD,M
Boys,51.71,6,Andrew Bloomer,Alvord,50.35,90.72,56.7,90.72,238.14,Single-ply,SBD,M
Boys,51.71,7,Parker Redman,Alvord,42.18,81.65,45.36,70.31,197.31,Single-ply,SBD,M
Boys,55.79,1,Justin Wilson #11,Wichita Falls City View,55.34,156.49,81.65,172.37,410.5,Single-ply,SBD,M
Boys,55.79,2,Creed Carter,Sanger,53.52,142.88,65.77,142.88,351.53,Single-ply,SBD,M
Boys,55.79,3,Landry Hoskins,Sanger,54.43,133.81,72.57,142.88,349.27,Single-ply,SBD,M
Boys,55.79,4,Nikolas Fraire,Gainesville,53.52,124.74,63.5,138.35,326.59,Single-ply,SBD,M
Boys,55.79,5,Bryson Moore,Bowie,54.79,102.06,63.5,129.27,294.84,Single-ply,SBD,M
Boys,55.79,6,Aaron Kaufmann,Quanah,54.43,97.52,47.63,97.52,242.67,Single-ply,SBD,M
Boys,55.79,DQ,Victor Campuzano,Krum,55.34,102.06,,,,Single-ply,SBD,M
Boys,59.87,1,Justin Christensen,Alvord,56.25,131.54,83.91,149.69,365.14,Single-ply,SBD,M
Boys,59.87,2,Payton Miller,Alvord,56.25,136.08,86.18,133.81,356.07,Single-ply,SBD,M
Boys,59.87,3,Tucker Wicks,Alvord,58.51,97.52,61.23,111.13,269.89,Single-ply,SBD,M
Boys,67.13,1,Kyle Reed,Wichita Falls City View,63.5,174.63,79.38,181.44,435.45,Single-ply,SBD,M
Boys,67.13,2,Ty Harris,Bowie,66.32,158.76,99.79,163.29,421.84,Single-ply,SBD,M
Boys,67.13,3,Timoteo Dominguez,Wichita Falls City View,63.05,172.37,74.84,158.76,405.97,Single-ply,SBD,M
Boys,67.13,4,Jose de la Cerda,Bridgeport,63.96,151.95,92.99,151.95,396.89,Single-ply,SBD,M
Boys,67.13,5,Dalton Davis #1,Bowie,65.41,151.95,77.11,149.69,378.75,Single-ply,SBD,M
Boys,67.13,6,Mason Pendegrass,Whitesboro,64.41,120.2,81.65,138.35,340.19,Single-ply,SBD,M
Boys,67.13,7,Danlee Duncan,Quanah,65.77,127.01,72.57,138.35,337.93,Single-ply,SBD,M
Boys,67.13,8,Ty Vanbuskirk,Perrin-Whitt,63.96,117.93,83.91,133.81,335.66,Single-ply,SBD,M
Boys,67.13,9,Jakob Dumke,Alvord,63.5,111.13,95.25,127.01,333.39,Single-ply,SBD,M
Boys,67.13,10,Chris Graham #1,Wichita Falls City View,64.41,106.59,79.38,136.08,322.05,Single-ply,SBD,M
Boys,67.13,11,Brian DeLaRosa,Archer City,65.77,99.79,81.65,111.13,292.57,Single-ply,SBD,M
Boys,67.13,12,Adam Mangum,Archer City,61.23,102.06,61.23,113.4,276.69,Single-ply,SBD,M
Boys,67.13,13,Eric Leija,Quanah,64.41,90.72,68.04,108.86,267.62,Single-ply,SBD,M
Boys,67.13,DQ,Bryson Lightfoot,Krum,67.13,127.01,,,,Single-ply,SBD,M
Boys,67.13,DQ,Justus Simpkins,Krum,65.77,117.93,,,,Single-ply,SBD,M
Boys,67.13,DQ,Jacob Miller,Krum,65.32,104.33,,,,Single-ply,SBD,M
Boys,67.13,DQ,Leo Sustaita,Gainesville,65.32,,,,,Single-ply,SBD,M
Boys,74.84,1,Erik Gaspar,Gainesville,73.48,197.31,133.81,199.58,530.7,Single-ply,SBD,M
Boys,74.84,2,Kearrius Ladell,Lake Worth,70.31,183.7,106.59,163.29,453.59,Single-ply,SBD,M
Boys,74.84,3,Aj Craddock,Bowie,74.39,167.83,108.86,172.37,449.06,Single-ply,SBD,M
Boys,74.84,4,Joey Crawford,Bowie,70.13,156.49,86.18,181.44,424.11,Single-ply,SBD,M
Boys,74.84,5,Malichi Davidson,Whitesboro,73.03,167.83,86.18,170.1,424.11,Single-ply,SBD,M
Boys,74.84,6,Randall Hamilton,Jacksboro,71.21,163.29,90.72,142.88,396.89,Single-ply,SBD,M
Boys,74.84,7,Ethan Fudge #2,Jacksboro,71.67,154.22,92.99,147.42,394.63,Single-ply,SBD,M
Boys,74.84,8,Conner Smith,Sadler S & S Cons,73.94,138.35,86.18,158.76,383.29,Single-ply,SBD,M
Boys,74.84,9,Will Cross,Jacksboro,72.12,136.08,79.38,156.49,371.95,Single-ply,SBD,M
Boys,74.84,10,Christian Chitwood,Whitesboro,73.94,136.08,77.11,156.49,369.68,Single-ply,SBD,M
Boys,74.84,11,Cameryn Crisp,Callisburg,74.84,124.74,108.86,136.08,369.68,Single-ply,SBD,M
Boys,74.84,12,Josh Harper,Petrolia,74.39,142.88,92.99,124.74,360.61,Single-ply,SBD,M
Boys,74.84,13,Tyqwan Muhammad,Wichita Falls City View,68.04,113.4,65.77,172.37,351.53,Single-ply,SBD,M
Boys,74.84,14,Reagan Johnson,Archer City,70.31,127.01,83.91,131.54,342.46,Single-ply,SBD,M
Boys,74.84,15,Jesus Garcia #9,Lake Worth,72.57,104.33,86.18,106.59,297.1,Single-ply,SBD,M
Boys,74.84,DQ,Ethan Sewell,Callisburg,73.48,120.2,,,,Single-ply,SBD,M
Boys,82.1,1,Chon Hernandez,Gainesville,75.75,240.4,151.95,240.4,632.76,Single-ply,SBD,M
Boys,82.1,2,Josh Wells #2,Jacksboro,76.2,204.12,131.54,240.4,576.06,Single-ply,SBD,M
Boys,82.1,3,Syler Saenz,Sanger,81.19,199.58,124.74,213.19,537.51,Single-ply,SBD,M
Boys,82.1,4,David Cancino,Gainesville,80.74,206.38,136.08,188.24,530.7,Single-ply,SBD,M
Boys,82.1,5,Jacob Skinner,Bowie,78.38,161.03,102.06,181.44,444.52,Single-ply,SBD,M
Boys,82.1,6,Diangelo Sandoval,Bridgeport,76.66,174.63,104.33,149.69,428.64,Single-ply,SBD,M
Boys,82.1,7,Connor Glass,Sadler S & S Cons,77.11,149.69,90.72,179.17,419.57,Single-ply,SBD,M
Boys,82.1,8,Lane Pearson,Krum,78.93,154.22,92.99,167.83,415.04,Single-ply,SBD,M
Boys,82.1,9,Sam Whittenburg,Sadler S & S Cons,77.56,136.08,90.72,167.83,394.63,Single-ply,SBD,M
Boys,82.1,10,Nate Antzcak,Ponder,76.66,127.01,83.91,147.42,358.34,Single-ply,SBD,M
Boys,82.1,11,Justin Browning,Archer City,76.66,124.74,79.38,136.08,340.19,Single-ply,SBD,M
Boys,82.1,12,Nathan Brown,Lake Worth,79.83,124.74,88.45,115.67,328.85,Single-ply,SBD,M
Boys,82.1,DQ,Chris Nabors,Wichita Falls City View,78.93,158.76,,,,Single-ply,SBD,M
Boys,82.1,DQ,Chris Habermann,Krum,81.19,124.74,,,,Single-ply,SBD,M
Boys,82.1,DQ,Victor Tran,Bowie,79.2,102.06,,,,Single-ply,SBD,M
Boys,89.81,1,Bret Davis,Bowie,88.72,217.72,161.03,233.6,612.35,Single-ply,SBD,M
Boys,89.81,2,Billy Goff,Sanger,85.28,219.99,147.42,222.26,589.67,Single-ply,SBD,M
Boys,89.81,3,James Brock,Jacksboro,87.54,190.51,120.2,204.12,514.83,Single-ply,SBD,M
Boys,89.81,4,Daniel Lackey,Krum,86.18,170.1,127.01,210.92,508.02,Single-ply,SBD,M
Boys,89.81,5,Markos Morales,Whitesboro,87.54,179.17,111.13,197.31,487.61,Single-ply,SBD,M
Boys,89.81,6,Jacob Hull,Jacksboro,85.28,188.24,102.06,181.44,471.74,Single-ply,SBD,M
Boys,89.81,7,Seth Baucum,Callisburg,83.46,161.03,102.06,192.78,455.86,Single-ply,SBD,M
Boys,89.81,8,Cody Howard,Jacksboro,88.9,181.44,90.72,183.7,455.86,Single-ply,SBD,M
Boys,89.81,9,Trey Cook,Krum,82.55,165.56,88.45,176.9,430.91,Single-ply,SBD,M
Boys,89.81,10,Tristan Reilly,Sanger,85.28,170.1,97.52,163.29,430.91,Single-ply,SBD,M
Boys,89.81,11,Josh Salazar,Lake Worth,85.73,124.74,90.72,142.88,358.34,Single-ply,SBD,M
Boys,89.81,12,Julian Garcia,Wichita Falls City View,86.64,129.27,90.72,138.35,358.34,Single-ply,SBD,M
Boys,89.81,13,Aldo Nunez,Krum,85.28,124.74,83.91,140.61,349.27,Single-ply,SBD,M
Boys,89.81,DQ,Jacob White,Perrin-Whitt,87.54,127.01,,,,Single-ply,SBD,M
Boys,99.79,1,Gonsalo Ibarra,Bridgeport,96.62,185.97,165.56,215.46,566.99,Single-ply,SBD,M
Boys,99.79,2,Colby Hammond,Callisburg,98.88,204.12,113.4,208.65,526.17,Single-ply,SBD,M
Boys,99.79,3,Brett Carter,Sanger,93.44,188.24,120.2,197.31,505.76,Single-ply,SBD,M
Boys,99.79,4,Tanner Chambers,Callisburg,97.52,183.7,129.27,192.78,505.76,Single-ply,SBD,M
Boys,99.79,5,Brendon Kirk,Callisburg,92.08,181.44,102.06,210.92,494.42,Single-ply,SBD,M
Boys,99.79,6,Davion Haynes,Lake Worth,92.53,181.44,102.06,183.7,467.2,Single-ply,SBD,M
Boys,99.79,7,Brandon Thammavong,Lake Worth,97.07,167.83,106.59,158.76,433.18,Single-ply,SBD,M
Boys,99.79,8,Kaleb Markham,Whitesboro,94.35,149.69,90.72,149.69,390.09,Single-ply,SBD,M
Boys,99.79,9,Ibrahim Uribe,Bridgeport,97.07,147.42,90.72,151.95,390.09,Single-ply,SBD,M
Boys,99.79,10,Mario Tobar,Krum,91.17,136.08,95.25,136.08,367.41,Single-ply,SBD,M
Boys,99.79,11,Cody Snead,Alvord,91.17,136.08,90.72,136.08,362.87,Single-ply,SBD,M
Boys,109.77,1,Tanner Young,Whitesboro,103.42,204.12,131.54,215.46,551.11,Single-ply,SBD,M
Boys,109.77,2,Mason Holzer,Sanger,104.78,195.04,120.2,197.31,512.56,Single-ply,SBD,M
Boys,109.77,3,Roberto Nava,Gainesville,102.97,195.04,129.27,185.97,510.29,Single-ply,SBD,M
Boys,109.77,4,Aaron Longoria,Quanah,109.32,190.51,131.54,185.97,508.02,Single-ply,SBD,M
Boys,109.77,5,Hunter Coleman,Bridgeport,108.41,190.51,124.74,185.97,501.22,Single-ply,SBD,M
Boys,109.77,6,Chandler Bridges,Jacksboro,107.95,213.19,104.33,170.1,487.61,Single-ply,SBD,M
Boys,109.77,7,Kade McManus,Bowie,107.5,174.63,104.33,183.7,462.66,Single-ply,SBD,M
Boys,109.77,8,Dain Warnick,Alvord,107.95,170.1,97.52,158.76,426.38,Single-ply,SBD,M
Boys,109.77,9,Ryan Alaniz,Quanah,105.69,142.88,95.25,183.7,421.84,Single-ply,SBD,M
Boys,109.77,10,Manuel Villegas,Lake Worth,108.41,163.29,74.84,163.29,401.43,Single-ply,SBD,M
Boys,109.77,11,Jordan Badillo,Bridgeport,106.59,147.42,102.06,147.42,396.89,Single-ply,SBD,M
Boys,109.77,12,Zane Myracle,Archer City,106.14,136.08,108.86,149.69,394.63,Single-ply,SBD,M
Boys,109.77,13,Marco De La Cruz,Lake Worth,102.51,154.22,79.38,136.08,369.68,Single-ply,SBD,M
Boys,109.77,14,Nicholas Dunn,Bridgeport,105.23,133.81,74.84,147.42,356.07,Single-ply,SBD,M
Boys,109.77,DQ,Tyler Edington,Gainesville,103.42,217.72,,,,Single-ply,SBD,M
Boys,109.77,DQ,Asael Lagos,Gainesville,106.59,285.76,,,,Single-ply,SBD,M
Boys,124.74,1,Jack Atkins,Gainesville,112.94,229.06,115.67,219.99,564.72,Single-ply,SBD,M
Boys,124.74,2,KC Rater,Jacksboro,122.47,199.58,115.67,163.29,478.54,Single-ply,SBD,M
Boys,124.74,3,Jacob Marshall,Bridgeport,117.03,170.1,115.67,174.63,460.4,Single-ply,SBD,M
Boys,124.74,4,Antonio Valdez,Lake Worth,110.22,163.29,90.72,161.03,415.04,Single-ply,SBD,M
Boys,124.74,5,Juan Salinas,Lake Worth,124.74,167.83,99.79,140.61,408.23,Single-ply,SBD,M
Boys,124.74,6,Logan Yeck,Krum,112.49,147.42,90.72,158.76,396.89,Single-ply,SBD,M
Boys,124.74,DQ,Zachary Brown,Alvord,122.92,,,,,Single-ply,SBD,M
Boys,124.74,DQ,Hunter Kirkham,Bowie,118.39,,,,,Single-ply,SBD,M
Boys,124.74+,1,Caleb Jennings,Bridgeport,136.53,281.23,176.9,269.89,728.02,Single-ply,SBD,M
Boys,124.74+,2,Miguel Rodriguez,Gainesville,146.51,299.37,190.51,238.14,728.02,Single-ply,SBD,M
Boys,124.74+,3,Eric Stonechek,Bridgeport,129.73,240.4,181.44,219.99,641.83,Single-ply,SBD,M
Boys,124.74+,4,Alexis Jimenez,Lake Worth,128.37,240.4,172.37,217.72,630.49,Single-ply,SBD,M
Boys,124.74+,5,Tyler Yeck,Ponder,157.85,247.21,131.54,231.33,610.08,Single-ply,SBD,M
Boys,124.74+,6,James Manuel,Gainesville,155.58,204.12,122.47,219.99,546.58,Single-ply,SBD,M
Boys,124.74+,7,Trevor Cornelison,Bowie,146.15,161.03,117.93,147.42,426.38,Single-ply,SBD,M
Boys,124.74+,8,Wesley Sanders,Lake Worth,159.66,154.22,108.86,156.49,419.57,Single-ply,SBD,M
Boys,124.74+,9,Justin Diaz,Petrolia,143.79,147.42,102.06,158.76,408.23,Single-ply,SBD,M
